\select@language {english}
\contentsline {chapter}{\numberline {1}Installation}{3}{chapter.1}
\contentsline {section}{\numberline {1.1}Dependencies}{3}{section.1.1}
\contentsline {chapter}{\numberline {2}Indices and tables}{5}{chapter.2}
\contentsline {chapter}{Python Module Index}{7}{section*.3}
